<?xml version="1.0" encoding="utf-8"?>
<!-- Generator: Adobe Illustrator 19.2.0, SVG Export Plug-In . SVG Version: 6.00 Build 0)  -->
<svg version="1.1" id="Layer_2_copy_2" xmlns="http://www.w3.org/2000/svg" xmlns:xlink="http://www.w3.org/1999/xlink" x="0px"
	 y="0px" viewBox="0 0 72 72" style="enable-background:new 0 0 72 72;" xml:space="preserve">
<path id="svg_8_3_" d="M26,11h20V7h-5.1c-0.5,0-0.9-0.3-1-0.8C39.5,4.3,37.9,3,36,3s-3.5,1.3-3.9,3.2C32,6.7,31.6,7,31.1,7H26V11z
	 M24,12V6c0-0.6,0.4-1,1-1h5.3c0.8-2.4,3.1-4,5.7-4c2.6,0,4.8,1.6,5.7,4H47c0.6,0,1,0.4,1,1v6c0,0.6-0.4,1-1,1H25
	C24.4,13,24,12.6,24,12L24,12z M36,5c-1.1,0-2,0.9-2,2s0.9,2,2,2s2-0.9,2-2S37.1,5,36,5L36,5z M58,67c0.3,0,0.5-0.1,0.7-0.3l6-6
	c0.2-0.2,0.3-0.4,0.3-0.7V10c0-0.6-0.4-1-1-1H51c-0.6,0-1,0.4-1,1s0.4,1,1,1h12v48.6l-5.7,5.7c-0.4,0.4-0.4,1,0,1.4
	C57.5,66.9,57.7,67,58,67L58,67z M21,9H8c-0.6,0-1,0.4-1,1v53c0,2.2,1.8,4,4,4h43c0.6,0,1-0.4,1-1v-6c0-0.5,0.4-1,1-1h4
	c0.6,0,1-0.4,1-1s-0.4-1-1-1h-4c-1.6,0-3,1.4-3,3v5H11c-1.1,0-2-0.9-2-2V11h12c0.6,0,1-0.4,1-1S21.6,9,21,9L21,9z M69,10v56
	c0,2.6-2.4,5-5,5H8c-2.6,0-5-2.4-5-5V10c0-2.6,2.4-5,5-5h13c0.6,0,1,0.4,1,1s-0.4,1-1,1H8c-1.5,0-3,1.5-3,3v56c0,1.5,1.5,3,3,3h56
	c1.5,0,3-1.5,3-3V10c0-1.5-1.5-3-3-3H51c-0.6,0-1-0.4-1-1s0.4-1,1-1h13C66.6,5,69,7.4,69,10L69,10z"/>
<g>
	<circle cx="19.7" cy="22.4" r="1.9"/>
	<g>
		<path d="M19.7,24.7c-2,0-3.6,1.6-3.6,3.6h7.2C23.3,26.3,21.7,24.7,19.7,24.7z"/>
	</g>
</g>
<g>
	<circle cx="30.7" cy="22.4" r="1.9"/>
	<g>
		<path d="M30.7,24.7c-2,0-3.6,1.6-3.6,3.6h7.2C34.3,26.3,32.7,24.7,30.7,24.7z"/>
	</g>
</g>
<g>
	<circle cx="52.7" cy="22.4" r="1.9"/>
	<g>
		<path d="M52.7,24.7c-2,0-3.6,1.6-3.6,3.6h7.2C56.3,26.3,54.7,24.7,52.7,24.7z"/>
	</g>
</g>
<g>
	<circle cx="19.7" cy="35.4" r="1.9"/>
	<g>
		<path d="M19.7,37.7c-2,0-3.6,1.6-3.6,3.6h7.2C23.3,39.3,21.7,37.7,19.7,37.7z"/>
	</g>
</g>
<g>
	<circle cx="30.7" cy="35.4" r="1.9"/>
	<g>
		<path d="M30.7,37.7c-2,0-3.6,1.6-3.6,3.6h7.2C34.3,39.3,32.7,37.7,30.7,37.7z"/>
	</g>
</g>
<g>
	<circle cx="41.7" cy="35.4" r="1.9"/>
	<g>
		<path d="M41.7,37.7c-2,0-3.6,1.6-3.6,3.6h7.2C45.3,39.3,43.7,37.7,41.7,37.7z"/>
	</g>
</g>
<g>
	<circle cx="41.7" cy="48.4" r="1.9"/>
	<g>
		<path d="M41.7,50.7c-2,0-3.6,1.6-3.6,3.6h7.2C45.3,52.3,43.7,50.7,41.7,50.7z"/>
	</g>
</g>
<g>
	<circle cx="52.7" cy="48.4" r="1.9"/>
	<g>
		<path d="M52.7,50.7c-2,0-3.6,1.6-3.6,3.6h7.2C56.3,52.3,54.7,50.7,52.7,50.7z"/>
	</g>
</g>
<path d="M44.5,21.8c-0.4-0.4-1-0.4-1.4,0l-1.3,1.3l-1.3-1.3c-0.4-0.4-1-0.4-1.4,0s-0.4,1,0,1.4l1.3,1.3L39,25.8
	c-0.4,0.4-0.4,1,0,1.4c0.2,0.2,0.5,0.3,0.7,0.3s0.5-0.1,0.7-0.3l1.3-1.3l1.3,1.3c0.2,0.2,0.5,0.3,0.7,0.3s0.5-0.1,0.7-0.3
	c0.4-0.4,0.4-1,0-1.4l-1.3-1.3l1.3-1.3C44.8,22.8,44.8,22.2,44.5,21.8L44.5,21.8z"/>
<path d="M22.5,47.8c-0.4-0.4-1-0.4-1.4,0l-1.3,1.3l-1.3-1.3c-0.4-0.4-1-0.4-1.4,0s-0.4,1,0,1.4l1.3,1.3L17,51.8
	c-0.4,0.4-0.4,1,0,1.4c0.2,0.2,0.5,0.3,0.7,0.3s0.5-0.1,0.7-0.3l1.3-1.3l1.3,1.3c0.2,0.2,0.5,0.3,0.7,0.3s0.5-0.1,0.7-0.3
	c0.4-0.4,0.4-1,0-1.4l-1.3-1.3l1.3-1.3C22.8,48.8,22.8,48.2,22.5,47.8L22.5,47.8z"/>
<path d="M55.5,34.8c-0.4-0.4-1-0.4-1.4,0l-1.3,1.3l-1.3-1.3c-0.4-0.4-1-0.4-1.4,0s-0.4,1,0,1.4l1.3,1.3L50,38.8
	c-0.4,0.4-0.4,1,0,1.4c0.2,0.2,0.5,0.3,0.7,0.3s0.5-0.1,0.7-0.3l1.3-1.3l1.3,1.3c0.2,0.2,0.5,0.3,0.7,0.3s0.5-0.1,0.7-0.3
	c0.4-0.4,0.4-1,0-1.4l-1.3-1.3l1.3-1.3C55.8,35.8,55.8,35.2,55.5,34.8L55.5,34.8z"/>
<path d="M33.5,47.8c-0.4-0.4-1-0.4-1.4,0l-1.3,1.3l-1.3-1.3c-0.4-0.4-1-0.4-1.4,0s-0.4,1,0,1.4l1.3,1.3L28,51.8
	c-0.4,0.4-0.4,1,0,1.4c0.2,0.2,0.5,0.3,0.7,0.3s0.5-0.1,0.7-0.3l1.3-1.3l1.3,1.3c0.2,0.2,0.5,0.3,0.7,0.3s0.5-0.1,0.7-0.3
	c0.4-0.4,0.4-1,0-1.4l-1.3-1.3l1.3-1.3C33.8,48.8,33.8,48.2,33.5,47.8L33.5,47.8z"/>
</svg>
