<?xml version="1.0" encoding="utf-8"?>
<!-- Generator: Adobe Illustrator 19.2.0, SVG Export Plug-In . SVG Version: 6.00 Build 0)  -->
<svg version="1.1" id="Layer_6" xmlns="http://www.w3.org/2000/svg" xmlns:xlink="http://www.w3.org/1999/xlink" x="0px" y="0px"
	 viewBox="0 0 72 72" style="enable-background:new 0 0 72 72;" xml:space="preserve">
<style type="text/css">
	.st0{fill:none;}
</style>
<g id="People">
	<g id="Icon-2">
		<g id="Layer_7">
			<g id="handshake">
				<g>
					<path d="M24.3,33.5c-2,1.7-1,6.3,3.6,3.5c0,0,5.7-2.9,9-4.7c0.7-0.4,1.2-0.3,1.8,0.4C39.5,33.2,54.6,50,54.6,50
						s4.6-3.5,6.5-7.2c0,0-4.2-7.9-8.2-15.7c-1.2,0.7-2.1,1.3-3.5,0.9c-1.4-0.4-2.5-1.5-3.7-2.2c-1.4-0.8-2.6-1.6-4.2-1.8
						c-2.3-0.3-4.2,0.7-6.2,1.9c-2.3,1.3-4.5,2.8-6.7,4.3C27.2,31.2,25.7,32.3,24.3,33.5z"/>
					<path d="M27.3,59.8c-0.8-1.1-0.6-2.7,0.3-3.6l4.8-4.4c1-0.9,2.4-0.8,3.2,0.3l0,0c0.8,1.1,0.6,2.7-0.3,3.6l-4.8,4.4
						C29.5,61,28.1,60.9,27.3,59.8L27.3,59.8z"/>
					<path d="M22.9,55.8c-0.8-1.1-0.6-2.7,0.3-3.6l3.8-3.4c1-0.9,2.4-0.8,3.2,0.3l0,0c0.8,1.1,0.6,2.7-0.3,3.6L26,56.1
						C25.1,57,23.6,56.8,22.9,55.8L22.9,55.8z"/>
					<path d="M17.5,52.5c-0.7-1.1-0.5-2.7,0.5-3.6l0.8-0.7c1-0.8,2.4-0.6,3.2,0.5l0,0.1c0.7,1.1,0.5,2.7-0.6,3.5L20.7,53
						C19.7,53.8,18.2,53.6,17.5,52.5L17.5,52.5z"/>
					<path d="M38.7,57.3c-0.8-1-2.3-1.1-3.2-0.1l-2.1,2.1c-0.9,1-1,2.6-0.2,3.6c0.8,1,2.3,1.1,3.2,0.1l2.1-2.1
						C39.4,60,39.5,58.4,38.7,57.3z"/>
					<path d="M68.2,39.2c0.3,0.7,0.2,1.4-0.4,1.7l-3.5,1.8c-0.6,0.3-1.3,0-1.6-0.7l-8.3-15.9c-0.3-0.7-0.2-1.4,0.4-1.7l3.5-1.8
						c0.6-0.3,1.3,0,1.6,0.7L68.2,39.2z"/>
				</g>
				<g>
					<path d="M9.3,42c-0.3,0.7-0.9,1.1-1.5,0.9l-3.5-1.2c-0.6-0.2-0.8-0.9-0.5-1.6l6.3-16.8c0.3-0.7,0.9-1.1,1.5-0.9l3.5,1.2
						c0.6,0.2,0.8,0.9,0.5,1.6L9.3,42z"/>
					<path d="M54.4,52.1L54.4,52.1c-0.1,0.4-0.2,0.7-0.5,1c-0.5,0.5-1.1,0.8-1.7,0.8c-0.6,0-1.3-0.3-1.8-0.9l-6-6.8
						c-0.1-0.1-0.2-0.2-0.4-0.2c-0.6,0-1.2,0.9-0.7,1.5l4.9,5.4c0.9,1.1,0.9,2.7,0,3.7c-0.4,0.5-1,0.7-1.5,0.7
						c-0.6,0-1.2-0.3-1.8-0.9l-5.6-6.3C39.3,50.1,39.2,50,39,50c-0.5,0-1.1,0.9-0.5,1.5l4.3,5c0.9,1,0.8,2.6-0.1,3.6
						c-0.4,0.5-0.9,0.7-1.4,0.7c-0.3,0-0.6-0.1-0.9-0.2c-0.2,0.5-0.5,0.9-0.8,1.3c0.5,0.3,1.1,0.5,1.7,0.5c0.9,0,1.8-0.4,2.5-1.2
						c0.7-0.8,1.1-1.8,1.1-2.8c0.6,0.4,1.2,0.6,1.9,0.6c1,0,1.9-0.4,2.6-1.2c0.7-0.8,1-1.8,1.1-2.8c0.5,0.3,1.1,0.5,1.7,0.5
						c1.1,0,2-0.5,2.8-1.3c0.7-0.8,0.8-1.6,0.9-2.2c0-0.3,0-0.7-0.1-0.9c-0.2,0.1-0.3,0.2-0.3,0.2L54.4,52.1z"/>
					<path d="M17.1,47.7L17.1,47.7L17.1,47.7l0.4-0.3c-2.9-3-4.7-5.2-4.7-5.2c2.8-7.2,6-15.9,6-15.9c0,0.5,1.6,1.4,2,1.5
						c0.6,0.2,1.2,0.3,1.8,0.3c0.2,0,0.3,0,0.5,0c1.8-0.2,3.4-1.2,5-2.1c1-0.6,2.3-1.2,3.6-1.2c0.6,0,1.1,0.1,1.7,0.5
						c0.5-0.3,0.9-0.6,1.4-0.8c-0.1-0.1-0.2-0.2-0.3-0.3c-0.8-0.6-1.7-0.9-2.8-0.9c-1.6,0-3.2,0.8-4.3,1.4l-0.4,0.2
						c-1.3,0.8-2.7,1.5-4,1.7c-0.1,0-0.2,0-0.4,0c-0.4,0-0.9-0.1-1.2-0.2c-0.3-0.1-0.9-0.5-1.1-0.7c-0.2-0.5-0.6-0.8-1-0.9
						c-0.1,0-0.2,0-0.3,0c-0.6,0-1.2,0.4-1.4,1c0,0.1-3.2,8.8-6,15.8c-0.2,0.5-0.1,1.2,0.2,1.6c0.1,0.1,1.8,2.3,4.7,5.2
						C16.6,48.2,16.8,47.9,17.1,47.7z"/>
				</g>
			</g>
		</g>
	</g>
</g>
<g>
	<path class="st0" d="M5,66c0,1.5,1.5,3,3,3h56c1.5,0,3-1.5,3-3V53V23V10c0-1.5-1.5-3-3-3H8c-1.5,0-3,1.5-3,3v13v30V66z"/>
	<path d="M68,52c-0.6,0-1,0.4-1,1v13c0,1.5-1.5,3-3,3H8c-1.5,0-3-1.5-3-3V53c0-0.6-0.4-1-1-1s-1,0.4-1,1v13c0,2.6,2.4,5,5,5h56
		c2.6,0,5-2.4,5-5V53C69,52.4,68.6,52,68,52z"/>
	<path d="M64,5H8c-2.6,0-5,2.4-5,5v13c0,0.6,0.4,1,1,1s1-0.4,1-1V10c0-1.5,1.5-3,3-3h56c1.5,0,3,1.5,3,3v13c0,0.6,0.4,1,1,1
		s1-0.4,1-1V10C69,7.4,66.6,5,64,5z"/>
</g>
</svg>
